歐．歐皮
一個外表看似小孩
智慧卻遠低於小孩的名......(=____=)
名睡神！！！　歐皮！！！！！！

每次的 OOP 課，都會準時向睡神報到的歐皮醬
今天也一如往常的進入夢鄉
正當熟睡之際，突然覺得眼前有道聖光......


「什麼！！！！居然要我殺光史萊姆！！！！」
「不然就不讓我回去？什麼意思？」

「這裡是你的夢世界...」
「不把五隻史萊姆全消滅，你是回不去的...」

有個神祕的聲音這麼說著......

「時之史萊姆，唯有靠近它之時，才會現出原形。」



《任務：找出所有史萊姆，並全數擊倒》